%YAML 1.1
%TAG !u! tag:unity3d.com,2011:
--- !u!114 &1270270579
MonoBehaviour:
  m_ObjectHideFlags: 0
  m_CorrespondingSourceObject: {fileID: 0}
  m_PrefabInstance: {fileID: 0}
  m_PrefabAsset: {fileID: 0}
  m_GameObject: {fileID: 2299941843274250611}
  m_Enabled: 1
  m_EditorHideFlags: 0
  m_Script: {fileID: 11500000, guid: aa584fbee541324448dd18d8409c7a41, type: 3}
  m_Name: 
  m_EditorClassIdentifier: 
  ObservedComponentsFoldoutOpen: 1
  Group: 0
  prefixField: -1
  Synchronization: 3
  OwnershipTransfer: 1
  observableSearch: 0
  ObservedComponents:
  - {fileID: 1270270585}
  sceneViewId: 0
  InstantiationId: 0
  isRuntimeInstantiated: 0
--- !u!114 &1270270580
MonoBehaviour:
  m_ObjectHideFlags: 0
  m_CorrespondingSourceObject: {fileID: 0}
  m_PrefabInstance: {fileID: 0}
  m_PrefabAsset: {fileID: 0}
  m_GameObject: {fileID: 2299941843274250611}
  m_Enabled: 1
  m_EditorHideFlags: 0
  m_Script: {fileID: 11500000, guid: 130ef06c1c6d9a8408a37662e933b938, type: 3}
  m_Name: 
  m_EditorClassIdentifier: 
--- !u!114 &1270270585
MonoBehaviour:
  m_ObjectHideFlags: 0
  m_CorrespondingSourceObject: {fileID: 0}
  m_PrefabInstance: {fileID: 0}
  m_PrefabAsset: {fileID: 0}
  m_GameObject: {fileID: 2299941843274250611}
  m_Enabled: 1
  m_EditorHideFlags: 0
  m_Script: {fileID: 11500000, guid: aa3fb0857e8b5d94e8f7201d877043be, type: 3}
  m_Name: 
  m_EditorClassIdentifier: 
  isUser: 0
--- !u!114 &1570951161
MonoBehaviour:
  m_ObjectHideFlags: 0
  m_CorrespondingSourceObject: {fileID: 0}
  m_PrefabInstance: {fileID: 0}
  m_PrefabAsset: {fileID: 0}
  m_GameObject: {fileID: 2299941843766173885}
  m_Enabled: 1
  m_EditorHideFlags: 0
  m_Script: {fileID: 11500000, guid: aa584fbee541324448dd18d8409c7a41, type: 3}
  m_Name: 
  m_EditorClassIdentifier: 
  ObservedComponentsFoldoutOpen: 1
  Group: 0
  prefixField: -1
  Synchronization: 3
  OwnershipTransfer: 1
  observableSearch: 0
  ObservedComponents:
  - {fileID: 1570951167}
  sceneViewId: 0
  InstantiationId: 0
  isRuntimeInstantiated: 0
--- !u!114 &1570951162
MonoBehaviour:
  m_ObjectHideFlags: 0
  m_CorrespondingSourceObject: {fileID: 0}
  m_PrefabInstance: {fileID: 0}
  m_PrefabAsset: {fileID: 0}
  m_GameObject: {fileID: 2299941843766173885}
  m_Enabled: 1
  m_EditorHideFlags: 0
  m_Script: {fileID: 11500000, guid: 130ef06c1c6d9a8408a37662e933b938, type: 3}
  m_Name: 
  m_EditorClassIdentifier: 
--- !u!114 &1570951167
MonoBehaviour:
  m_ObjectHideFlags: 0
  m_CorrespondingSourceObject: {fileID: 0}
  m_PrefabInstance: {fileID: 0}
  m_PrefabAsset: {fileID: 0}
  m_GameObject: {fileID: 2299941843766173885}
  m_Enabled: 1
  m_EditorHideFlags: 0
  m_Script: {fileID: 11500000, guid: aa3fb0857e8b5d94e8f7201d877043be, type: 3}
  m_Name: 
  m_EditorClassIdentifier: 
  isUser: 0
--- !u!114 &705287641
MonoBehaviour:
  m_ObjectHideFlags: 0
  m_CorrespondingSourceObject: {fileID: 0}
  m_PrefabInstance: {fileID: 0}
  m_PrefabAsset: {fileID: 0}
  m_GameObject: {fileID: 2299941844236478602}
  m_Enabled: 1
  m_EditorHideFlags: 0
  m_Script: {fileID: 11500000, guid: aa584fbee541324448dd18d8409c7a41, type: 3}
  m_Name: 
  m_EditorClassIdentifier: 
  ObservedComponentsFoldoutOpen: 1
  Group: 0
  prefixField: -1
  Synchronization: 3
  OwnershipTransfer: 1
  observableSearch: 0
  ObservedComponents:
  - {fileID: 705287647}
  sceneViewId: 0
  InstantiationId: 0
  isRuntimeInstantiated: 0
--- !u!114 &705287642
MonoBehaviour:
  m_ObjectHideFlags: 0
  m_CorrespondingSourceObject: {fileID: 0}
  m_PrefabInstance: {fileID: 0}
  m_PrefabAsset: {fileID: 0}
  m_GameObject: {fileID: 2299941844236478602}
  m_Enabled: 1
  m_EditorHideFlags: 0
  m_Script: {fileID: 11500000, guid: 130ef06c1c6d9a8408a37662e933b938, type: 3}
  m_Name: 
  m_EditorClassIdentifier: 
--- !u!114 &705287647
MonoBehaviour:
  m_ObjectHideFlags: 0
  m_CorrespondingSourceObject: {fileID: 0}
  m_PrefabInstance: {fileID: 0}
  m_PrefabAsset: {fileID: 0}
  m_GameObject: {fileID: 2299941844236478602}
  m_Enabled: 1
  m_EditorHideFlags: 0
  m_Script: {fileID: 11500000, guid: aa3fb0857e8b5d94e8f7201d877043be, type: 3}
  m_Name: 
  m_EditorClassIdentifier: 
  isUser: 0
--- !u!114 &297677160113998578
MonoBehaviour:
  m_ObjectHideFlags: 0
  m_CorrespondingSourceObject: {fileID: 0}
  m_PrefabInstance: {fileID: 0}
  m_PrefabAsset: {fileID: 0}
  m_GameObject: {fileID: 3001930074323074886}
  m_Enabled: 1
  m_EditorHideFlags: 0
  m_Script: {fileID: 11500000, guid: 3925dde368670c4438e3b5a0b3f3a505, type: 3}
  m_Name: 
  m_EditorClassIdentifier: 
--- !u!114 &751939523043879980
MonoBehaviour:
  m_ObjectHideFlags: 0
  m_CorrespondingSourceObject: {fileID: 0}
  m_PrefabInstance: {fileID: 0}
  m_PrefabAsset: {fileID: 0}
  m_GameObject: {fileID: 3001930074323074886}
  m_Enabled: 1
  m_EditorHideFlags: 0
  m_Script: {fileID: 11500000, guid: 130ef06c1c6d9a8408a37662e933b938, type: 3}
  m_Name: 
  m_EditorClassIdentifier: 
--- !u!114 &2106816211174382841
MonoBehaviour:
  m_ObjectHideFlags: 0
  m_CorrespondingSourceObject: {fileID: 0}
  m_PrefabInstance: {fileID: 0}
  m_PrefabAsset: {fileID: 0}
  m_GameObject: {fileID: 3001930074323074886}
  m_Enabled: 1
  m_EditorHideFlags: 0
  m_Script: {fileID: 11500000, guid: ec8475e1537b80548b7e8b3bfb9077de, type: 3}
  m_Name: 
  m_EditorClassIdentifier: 
--- !u!114 &2494980966584226187
MonoBehaviour:
  m_ObjectHideFlags: 0
  m_CorrespondingSourceObject: {fileID: 0}
  m_PrefabInstance: {fileID: 0}
  m_PrefabAsset: {fileID: 0}
  m_GameObject: {fileID: 3001930074323074886}
  m_Enabled: 1
  m_EditorHideFlags: 0
  m_Script: {fileID: 11500000, guid: aa584fbee541324448dd18d8409c7a41, type: 3}
  m_Name: 
  m_EditorClassIdentifier: 
  ObservedComponentsFoldoutOpen: 1
  Group: 0
  prefixField: -1
  Synchronization: 3
  OwnershipTransfer: 1
  observableSearch: 0
  ObservedComponents:
  - {fileID: 7770282072558111715}
  sceneViewId: 0
  InstantiationId: 0
  isRuntimeInstantiated: 0
--- !u!114 &3011420867583976798
MonoBehaviour:
  m_ObjectHideFlags: 0
  m_CorrespondingSourceObject: {fileID: 0}
  m_PrefabInstance: {fileID: 0}
  m_PrefabAsset: {fileID: 0}
  m_GameObject: {fileID: 3001930074323074886}
  m_Enabled: 1
  m_EditorHideFlags: 0
  m_Script: {fileID: 11500000, guid: 1545a4ef0329ebb44ba07fe7ed808314, type: 3}
  m_Name: 
  m_EditorClassIdentifier: 
--- !u!114 &7770282072558111715
MonoBehaviour:
  m_ObjectHideFlags: 0
  m_CorrespondingSourceObject: {fileID: 0}
  m_PrefabInstance: {fileID: 0}
  m_PrefabAsset: {fileID: 0}
  m_GameObject: {fileID: 3001930074323074886}
  m_Enabled: 1
  m_EditorHideFlags: 0
  m_Script: {fileID: 11500000, guid: aa3fb0857e8b5d94e8f7201d877043be, type: 3}
  m_Name: 
  m_EditorClassIdentifier: 
  isUser: 0
--- !u!114 &5620704296013659245
MonoBehaviour:
  m_ObjectHideFlags: 0
  m_CorrespondingSourceObject: {fileID: 0}
  m_PrefabInstance: {fileID: 0}
  m_PrefabAsset: {fileID: 0}
  m_GameObject: {fileID: 5238541235181750409}
  m_Enabled: 1
  m_EditorHideFlags: 0
  m_Script: {fileID: 11500000, guid: d1f599ee8d3bb0043a9a69cf0423d3cf, type: 3}
  m_Name: 
  m_EditorClassIdentifier: 
--- !u!114 &1166461505
MonoBehaviour:
  m_ObjectHideFlags: 0
  m_CorrespondingSourceObject: {fileID: 0}
  m_PrefabInstance: {fileID: 0}
  m_PrefabAsset: {fileID: 0}
  m_GameObject: {fileID: 5238541235608044757}
  m_Enabled: 1
  m_EditorHideFlags: 0
  m_Script: {fileID: 11500000, guid: ec8475e1537b80548b7e8b3bfb9077de, type: 3}
  m_Name: 
  m_EditorClassIdentifier: 
--- !u!114 &1166461506
MonoBehaviour:
  m_ObjectHideFlags: 0
  m_CorrespondingSourceObject: {fileID: 0}
  m_PrefabInstance: {fileID: 0}
  m_PrefabAsset: {fileID: 0}
  m_GameObject: {fileID: 5238541235608044757}
  m_Enabled: 1
  m_EditorHideFlags: 0
  m_Script: {fileID: 11500000, guid: 130ef06c1c6d9a8408a37662e933b938, type: 3}
  m_Name: 
  m_EditorClassIdentifier: 
--- !u!114 &1166461507
MonoBehaviour:
  m_ObjectHideFlags: 0
  m_CorrespondingSourceObject: {fileID: 0}
  m_PrefabInstance: {fileID: 0}
  m_PrefabAsset: {fileID: 0}
  m_GameObject: {fileID: 5238541235608044757}
  m_Enabled: 1
  m_EditorHideFlags: 0
  m_Script: {fileID: 11500000, guid: aa3fb0857e8b5d94e8f7201d877043be, type: 3}
  m_Name: 
  m_EditorClassIdentifier: 
  isUser: 0
--- !u!114 &1166461508
MonoBehaviour:
  m_ObjectHideFlags: 0
  m_CorrespondingSourceObject: {fileID: 0}
  m_PrefabInstance: {fileID: 0}
  m_PrefabAsset: {fileID: 0}
  m_GameObject: {fileID: 5238541235608044757}
  m_Enabled: 1
  m_EditorHideFlags: 0
  m_Script: {fileID: 11500000, guid: aa584fbee541324448dd18d8409c7a41, type: 3}
  m_Name: 
  m_EditorClassIdentifier: 
  ObservedComponentsFoldoutOpen: 1
  Group: 0
  prefixField: -1
  Synchronization: 3
  OwnershipTransfer: 1
  observableSearch: 0
  ObservedComponents:
  - {fileID: 1166461507}
  sceneViewId: 0
  InstantiationId: 0
  isRuntimeInstantiated: 0
--- !u!114 &803161949
MonoBehaviour:
  m_ObjectHideFlags: 0
  m_CorrespondingSourceObject: {fileID: 0}
  m_PrefabInstance: {fileID: 0}
  m_PrefabAsset: {fileID: 0}
  m_GameObject: {fileID: 5238541236234276875}
  m_Enabled: 1
  m_EditorHideFlags: 0
  m_Script: {fileID: 11500000, guid: ec8475e1537b80548b7e8b3bfb9077de, type: 3}
  m_Name: 
  m_EditorClassIdentifier: 
--- !u!114 &803161950
MonoBehaviour:
  m_ObjectHideFlags: 0
  m_CorrespondingSourceObject: {fileID: 0}
  m_PrefabInstance: {fileID: 0}
  m_PrefabAsset: {fileID: 0}
  m_GameObject: {fileID: 5238541236234276875}
  m_Enabled: 1
  m_EditorHideFlags: 0
  m_Script: {fileID: 11500000, guid: 130ef06c1c6d9a8408a37662e933b938, type: 3}
  m_Name: 
  m_EditorClassIdentifier: 
--- !u!114 &803161951
MonoBehaviour:
  m_ObjectHideFlags: 0
  m_CorrespondingSourceObject: {fileID: 0}
  m_PrefabInstance: {fileID: 0}
  m_PrefabAsset: {fileID: 0}
  m_GameObject: {fileID: 5238541236234276875}
  m_Enabled: 1
  m_EditorHideFlags: 0
  m_Script: {fileID: 11500000, guid: aa3fb0857e8b5d94e8f7201d877043be, type: 3}
  m_Name: 
  m_EditorClassIdentifier: 
  isUser: 0
--- !u!114 &803161952
MonoBehaviour:
  m_ObjectHideFlags: 0
  m_CorrespondingSourceObject: {fileID: 0}
  m_PrefabInstance: {fileID: 0}
  m_PrefabAsset: {fileID: 0}
  m_GameObject: {fileID: 5238541236234276875}
  m_Enabled: 1
  m_EditorHideFlags: 0
  m_Script: {fileID: 11500000, guid: aa584fbee541324448dd18d8409c7a41, type: 3}
  m_Name: 
  m_EditorClassIdentifier: 
  ObservedComponentsFoldoutOpen: 1
  Group: 0
  prefixField: -1
  Synchronization: 3
  OwnershipTransfer: 1
  observableSearch: 0
  ObservedComponents:
  - {fileID: 803161951}
  sceneViewId: 0
  InstantiationId: 0
  isRuntimeInstantiated: 0
--- !u!114 &1277781222
MonoBehaviour:
  m_ObjectHideFlags: 0
  m_CorrespondingSourceObject: {fileID: 0}
  m_PrefabInstance: {fileID: 0}
  m_PrefabAsset: {fileID: 0}
  m_GameObject: {fileID: 5238541236415584567}
  m_Enabled: 1
  m_EditorHideFlags: 0
  m_Script: {fileID: 11500000, guid: ec8475e1537b80548b7e8b3bfb9077de, type: 3}
  m_Name: 
  m_EditorClassIdentifier: 
--- !u!114 &1277781223
MonoBehaviour:
  m_ObjectHideFlags: 0
  m_CorrespondingSourceObject: {fileID: 0}
  m_PrefabInstance: {fileID: 0}
  m_PrefabAsset: {fileID: 0}
  m_GameObject: {fileID: 5238541236415584567}
  m_Enabled: 1
  m_EditorHideFlags: 0
  m_Script: {fileID: 11500000, guid: 130ef06c1c6d9a8408a37662e933b938, type: 3}
  m_Name: 
  m_EditorClassIdentifier: 
--- !u!114 &1277781224
MonoBehaviour:
  m_ObjectHideFlags: 0
  m_CorrespondingSourceObject: {fileID: 0}
  m_PrefabInstance: {fileID: 0}
  m_PrefabAsset: {fileID: 0}
  m_GameObject: {fileID: 5238541236415584567}
  m_Enabled: 1
  m_EditorHideFlags: 0
  m_Script: {fileID: 11500000, guid: aa3fb0857e8b5d94e8f7201d877043be, type: 3}
  m_Name: 
  m_EditorClassIdentifier: 
  isUser: 0
--- !u!114 &1277781225
MonoBehaviour:
  m_ObjectHideFlags: 0
  m_CorrespondingSourceObject: {fileID: 0}
  m_PrefabInstance: {fileID: 0}
  m_PrefabAsset: {fileID: 0}
  m_GameObject: {fileID: 5238541236415584567}
  m_Enabled: 1
  m_EditorHideFlags: 0
  m_Script: {fileID: 11500000, guid: aa584fbee541324448dd18d8409c7a41, type: 3}
  m_Name: 
  m_EditorClassIdentifier: 
  ObservedComponentsFoldoutOpen: 1
  Group: 0
  prefixField: -1
  Synchronization: 3
  OwnershipTransfer: 1
  observableSearch: 0
  ObservedComponents:
  - {fileID: 1277781224}
  sceneViewId: 0
  InstantiationId: 0
  isRuntimeInstantiated: 0
--- !u!114 &1058875907
MonoBehaviour:
  m_ObjectHideFlags: 0
  m_CorrespondingSourceObject: {fileID: 0}
  m_PrefabInstance: {fileID: 0}
  m_PrefabAsset: {fileID: 0}
  m_GameObject: {fileID: 5238541236803269854}
  m_Enabled: 1
  m_EditorHideFlags: 0
  m_Script: {fileID: 11500000, guid: ec8475e1537b80548b7e8b3bfb9077de, type: 3}
  m_Name: 
  m_EditorClassIdentifier: 
--- !u!114 &1058875908
MonoBehaviour:
  m_ObjectHideFlags: 0
  m_CorrespondingSourceObject: {fileID: 0}
  m_PrefabInstance: {fileID: 0}
  m_PrefabAsset: {fileID: 0}
  m_GameObject: {fileID: 5238541236803269854}
  m_Enabled: 1
  m_EditorHideFlags: 0
  m_Script: {fileID: 11500000, guid: 130ef06c1c6d9a8408a37662e933b938, type: 3}
  m_Name: 
  m_EditorClassIdentifier: 
--- !u!114 &1058875909
MonoBehaviour:
  m_ObjectHideFlags: 0
  m_CorrespondingSourceObject: {fileID: 0}
  m_PrefabInstance: {fileID: 0}
  m_PrefabAsset: {fileID: 0}
  m_GameObject: {fileID: 5238541236803269854}
  m_Enabled: 1
  m_EditorHideFlags: 0
  m_Script: {fileID: 11500000, guid: aa3fb0857e8b5d94e8f7201d877043be, type: 3}
  m_Name: 
  m_EditorClassIdentifier: 
  isUser: 0
--- !u!114 &1058875910
MonoBehaviour:
  m_ObjectHideFlags: 0
  m_CorrespondingSourceObject: {fileID: 0}
  m_PrefabInstance: {fileID: 0}
  m_PrefabAsset: {fileID: 0}
  m_GameObject: {fileID: 5238541236803269854}
  m_Enabled: 1
  m_EditorHideFlags: 0
  m_Script: {fileID: 11500000, guid: aa584fbee541324448dd18d8409c7a41, type: 3}
  m_Name: 
  m_EditorClassIdentifier: 
  ObservedComponentsFoldoutOpen: 1
  Group: 0
  prefixField: -1
  Synchronization: 3
  OwnershipTransfer: 1
  observableSearch: 0
  ObservedComponents:
  - {fileID: 1058875909}
  sceneViewId: 0
  InstantiationId: 0
  isRuntimeInstantiated: 0
--- !u!114 &601109826
MonoBehaviour:
  m_ObjectHideFlags: 0
  m_CorrespondingSourceObject: {fileID: 0}
  m_PrefabInstance: {fileID: 0}
  m_PrefabAsset: {fileID: 0}
  m_GameObject: {fileID: 5238541236819508096}
  m_Enabled: 1
  m_EditorHideFlags: 0
  m_Script: {fileID: 11500000, guid: ec8475e1537b80548b7e8b3bfb9077de, type: 3}
  m_Name: 
  m_EditorClassIdentifier: 
--- !u!114 &601109827
MonoBehaviour:
  m_ObjectHideFlags: 0
  m_CorrespondingSourceObject: {fileID: 0}
  m_PrefabInstance: {fileID: 0}
  m_PrefabAsset: {fileID: 0}
  m_GameObject: {fileID: 5238541236819508096}
  m_Enabled: 1
  m_EditorHideFlags: 0
  m_Script: {fileID: 11500000, guid: 130ef06c1c6d9a8408a37662e933b938, type: 3}
  m_Name: 
  m_EditorClassIdentifier: 
--- !u!114 &601109828
MonoBehaviour:
  m_ObjectHideFlags: 0
  m_CorrespondingSourceObject: {fileID: 0}
  m_PrefabInstance: {fileID: 0}
  m_PrefabAsset: {fileID: 0}
  m_GameObject: {fileID: 5238541236819508096}
  m_Enabled: 1
  m_EditorHideFlags: 0
  m_Script: {fileID: 11500000, guid: aa3fb0857e8b5d94e8f7201d877043be, type: 3}
  m_Name: 
  m_EditorClassIdentifier: 
  isUser: 0
--- !u!114 &601109829
MonoBehaviour:
  m_ObjectHideFlags: 0
  m_CorrespondingSourceObject: {fileID: 0}
  m_PrefabInstance: {fileID: 0}
  m_PrefabAsset: {fileID: 0}
  m_GameObject: {fileID: 5238541236819508096}
  m_Enabled: 1
  m_EditorHideFlags: 0
  m_Script: {fileID: 11500000, guid: aa584fbee541324448dd18d8409c7a41, type: 3}
  m_Name: 
  m_EditorClassIdentifier: 
  ObservedComponentsFoldoutOpen: 1
  Group: 0
  prefixField: -1
  Synchronization: 3
  OwnershipTransfer: 1
  observableSearch: 0
  ObservedComponents:
  - {fileID: 601109828}
  sceneViewId: 0
  InstantiationId: 0
  isRuntimeInstantiated: 0
--- !u!1001 &4192997144891282619
PrefabInstance:
  m_ObjectHideFlags: 0
  serializedVersion: 2
  m_Modification:
    m_TransformParent: {fileID: 0}
    m_Modifications:
    - target: {fileID: 341364378989964168, guid: 1817c36b870c0644dbafd663cfd6f718,
        type: 3}
      propertyPath: m_Mesh
      value: 
      objectReference: {fileID: 0}
    - target: {fileID: 341364379596612543, guid: 1817c36b870c0644dbafd663cfd6f718,
        type: 3}
      propertyPath: m_Mesh
      value: 
      objectReference: {fileID: 0}
    - target: {fileID: 341364380203858545, guid: 1817c36b870c0644dbafd663cfd6f718,
        type: 3}
      propertyPath: m_Mesh
      value: 
      objectReference: {fileID: 0}
    - target: {fileID: 6536925673690889874, guid: 1817c36b870c0644dbafd663cfd6f718,
        type: 3}
      propertyPath: m_textInfo.lineCount
      value: 1
      objectReference: {fileID: 0}
    - target: {fileID: 6536925673690889874, guid: 1817c36b870c0644dbafd663cfd6f718,
        type: 3}
      propertyPath: m_textInfo.pageCount
      value: 1
      objectReference: {fileID: 0}
    - target: {fileID: 6536925673690889874, guid: 1817c36b870c0644dbafd663cfd6f718,
        type: 3}
      propertyPath: m_textInfo.wordCount
      value: 1
      objectReference: {fileID: 0}
    - target: {fileID: 6536925673690889874, guid: 1817c36b870c0644dbafd663cfd6f718,
        type: 3}
      propertyPath: m_textInfo.characterCount
      value: 5
      objectReference: {fileID: 0}
    - target: {fileID: 6536925674619760491, guid: 1817c36b870c0644dbafd663cfd6f718,
        type: 3}
      propertyPath: m_textInfo.lineCount
      value: 1
      objectReference: {fileID: 0}
    - target: {fileID: 6536925674619760491, guid: 1817c36b870c0644dbafd663cfd6f718,
        type: 3}
      propertyPath: m_textInfo.pageCount
      value: 1
      objectReference: {fileID: 0}
    - target: {fileID: 6536925674619760491, guid: 1817c36b870c0644dbafd663cfd6f718,
        type: 3}
      propertyPath: m_textInfo.wordCount
      value: 1
      objectReference: {fileID: 0}
    - target: {fileID: 6536925674619760491, guid: 1817c36b870c0644dbafd663cfd6f718,
        type: 3}
      propertyPath: m_textInfo.characterCount
      value: 7
      objectReference: {fileID: 0}
    - target: {fileID: 6536925675221133148, guid: 1817c36b870c0644dbafd663cfd6f718,
        type: 3}
      propertyPath: m_textInfo.lineCount
      value: 1
      objectReference: {fileID: 0}
    - target: {fileID: 6536925675221133148, guid: 1817c36b870c0644dbafd663cfd6f718,
        type: 3}
      propertyPath: m_textInfo.pageCount
      value: 1
      objectReference: {fileID: 0}
    - target: {fileID: 6536925675221133148, guid: 1817c36b870c0644dbafd663cfd6f718,
        type: 3}
      propertyPath: m_textInfo.wordCount
      value: 1
      objectReference: {fileID: 0}
    - target: {fileID: 6536925675221133148, guid: 1817c36b870c0644dbafd663cfd6f718,
        type: 3}
      propertyPath: m_textInfo.characterCount
      value: 5
      objectReference: {fileID: 0}
    - target: {fileID: 8251594864840825906, guid: 1817c36b870c0644dbafd663cfd6f718,
        type: 3}
      propertyPath: m_Name
      value: RoverExplorer_Complete_Variant
      objectReference: {fileID: 0}
    - target: {fileID: 8251594864840825917, guid: 1817c36b870c0644dbafd663cfd6f718,
        type: 3}
      propertyPath: m_RootOrder
      value: 0
      objectReference: {fileID: 0}
    - target: {fileID: 8251594864840825917, guid: 1817c36b870c0644dbafd663cfd6f718,
        type: 3}
      propertyPath: m_LocalPosition.x
      value: 0
      objectReference: {fileID: 0}
    - target: {fileID: 8251594864840825917, guid: 1817c36b870c0644dbafd663cfd6f718,
        type: 3}
      propertyPath: m_LocalPosition.y
      value: -0.5999999
      objectReference: {fileID: 0}
    - target: {fileID: 8251594864840825917, guid: 1817c36b870c0644dbafd663cfd6f718,
        type: 3}
      propertyPath: m_LocalPosition.z
      value: 2
      objectReference: {fileID: 0}
    - target: {fileID: 8251594864840825917, guid: 1817c36b870c0644dbafd663cfd6f718,
        type: 3}
      propertyPath: m_LocalRotation.w
      value: 1
      objectReference: {fileID: 0}
    - target: {fileID: 8251594864840825917, guid: 1817c36b870c0644dbafd663cfd6f718,
        type: 3}
      propertyPath: m_LocalRotation.x
      value: -0
      objectReference: {fileID: 0}
    - target: {fileID: 8251594864840825917, guid: 1817c36b870c0644dbafd663cfd6f718,
        type: 3}
      propertyPath: m_LocalRotation.y
      value: -0
      objectReference: {fileID: 0}
    - target: {fileID: 8251594864840825917, guid: 1817c36b870c0644dbafd663cfd6f718,
        type: 3}
      propertyPath: m_LocalRotation.z
      value: -0
      objectReference: {fileID: 0}
    - target: {fileID: 8251594864840825917, guid: 1817c36b870c0644dbafd663cfd6f718,
        type: 3}
      propertyPath: m_LocalEulerAnglesHint.x
      value: 0
      objectReference: {fileID: 0}
    - target: {fileID: 8251594864840825917, guid: 1817c36b870c0644dbafd663cfd6f718,
        type: 3}
      propertyPath: m_LocalEulerAnglesHint.y
      value: 0
      objectReference: {fileID: 0}
    - target: {fileID: 8251594864840825917, guid: 1817c36b870c0644dbafd663cfd6f718,
        type: 3}
      propertyPath: m_LocalEulerAnglesHint.z
      value: 0
      objectReference: {fileID: 0}
    - target: {fileID: 8251594865363415437, guid: 1817c36b870c0644dbafd663cfd6f718,
        type: 3}
      propertyPath: m_textInfo.lineCount
      value: 1
      objectReference: {fileID: 0}
    - target: {fileID: 8251594865363415437, guid: 1817c36b870c0644dbafd663cfd6f718,
        type: 3}
      propertyPath: m_textInfo.pageCount
      value: 1
      objectReference: {fileID: 0}
    - target: {fileID: 8251594865363415437, guid: 1817c36b870c0644dbafd663cfd6f718,
        type: 3}
      propertyPath: m_textInfo.wordCount
      value: 2
      objectReference: {fileID: 0}
    - target: {fileID: 8251594865363415437, guid: 1817c36b870c0644dbafd663cfd6f718,
        type: 3}
      propertyPath: m_textInfo.spaceCount
      value: 1
      objectReference: {fileID: 0}
    - target: {fileID: 8251594865363415437, guid: 1817c36b870c0644dbafd663cfd6f718,
        type: 3}
      propertyPath: m_textInfo.characterCount
      value: 14
      objectReference: {fileID: 0}
    - target: {fileID: 8251594865363415439, guid: 1817c36b870c0644dbafd663cfd6f718,
        type: 3}
      propertyPath: m_Mesh
      value: 
      objectReference: {fileID: 0}
    m_RemovedComponents: []
  m_SourcePrefab: {fileID: 100100000, guid: 1817c36b870c0644dbafd663cfd6f718, type: 3}
--- !u!1 &3001930074323074886 stripped
GameObject:
  m_CorrespondingSourceObject: {fileID: 1412014614281874429, guid: 1817c36b870c0644dbafd663cfd6f718,
    type: 3}
  m_PrefabInstance: {fileID: 4192997144891282619}
  m_PrefabAsset: {fileID: 0}
--- !u!1 &5238541235608044757 stripped
GameObject:
  m_CorrespondingSourceObject: {fileID: 8251594865236742254, guid: 1817c36b870c0644dbafd663cfd6f718,
    type: 3}
  m_PrefabInstance: {fileID: 4192997144891282619}
  m_PrefabAsset: {fileID: 0}
--- !u!1 &5238541235181750409 stripped
GameObject:
  m_CorrespondingSourceObject: {fileID: 8251594864840825906, guid: 1817c36b870c0644dbafd663cfd6f718,
    type: 3}
  m_PrefabInstance: {fileID: 4192997144891282619}
  m_PrefabAsset: {fileID: 0}
--- !u!1 &5238541236803269854 stripped
GameObject:
  m_CorrespondingSourceObject: {fileID: 8251594866457059429, guid: 1817c36b870c0644dbafd663cfd6f718,
    type: 3}
  m_PrefabInstance: {fileID: 4192997144891282619}
  m_PrefabAsset: {fileID: 0}
--- !u!1 &5238541236234276875 stripped
GameObject:
  m_CorrespondingSourceObject: {fileID: 8251594865750705328, guid: 1817c36b870c0644dbafd663cfd6f718,
    type: 3}
  m_PrefabInstance: {fileID: 4192997144891282619}
  m_PrefabAsset: {fileID: 0}
--- !u!1 &5238541236819508096 stripped
GameObject:
  m_CorrespondingSourceObject: {fileID: 8251594866440826683, guid: 1817c36b870c0644dbafd663cfd6f718,
    type: 3}
  m_PrefabInstance: {fileID: 4192997144891282619}
  m_PrefabAsset: {fileID: 0}
--- !u!1 &2299941843766173885 stripped
GameObject:
  m_CorrespondingSourceObject: {fileID: 2727928325208388614, guid: 1817c36b870c0644dbafd663cfd6f718,
    type: 3}
  m_PrefabInstance: {fileID: 4192997144891282619}
  m_PrefabAsset: {fileID: 0}
--- !u!1 &2299941844236478602 stripped
GameObject:
  m_CorrespondingSourceObject: {fileID: 2727928325543394353, guid: 1817c36b870c0644dbafd663cfd6f718,
    type: 3}
  m_PrefabInstance: {fileID: 4192997144891282619}
  m_PrefabAsset: {fileID: 0}
--- !u!1 &5238541236415584567 stripped
GameObject:
  m_CorrespondingSourceObject: {fileID: 8251594866575904140, guid: 1817c36b870c0644dbafd663cfd6f718,
    type: 3}
  m_PrefabInstance: {fileID: 4192997144891282619}
  m_PrefabAsset: {fileID: 0}
--- !u!1 &2299941843274250611 stripped
GameObject:
  m_CorrespondingSourceObject: {fileID: 2727928324609535432, guid: 1817c36b870c0644dbafd663cfd6f718,
    type: 3}
  m_PrefabInstance: {fileID: 4192997144891282619}
  m_PrefabAsset: {fileID: 0}
